<?xml version="1.0" encoding="utf-8"?>
<!-- Generator: Adobe Illustrator 17.0.0, SVG Export Plug-In . SVG Version: 6.00 Build 0)  -->
<!DOCTYPE svg PUBLIC "-//W3C//DTD SVG 1.1//EN" "http://www.w3.org/Graphics/SVG/1.1/DTD/svg11.dtd">
<svg version="1.1" id="Capa_1" xmlns="http://www.w3.org/2000/svg" xmlns:xlink="http://www.w3.org/1999/xlink" x="0px" y="0px"
     width="17px" height="16px" viewBox="0 0 17 16" enable-background="new 0 0 17 16" xml:space="preserve">
<g>
	<g>
		<path fill="#0F6343" d="M1.557,15.281h14.287c0.305,0,0.543-0.238,0.543-0.543V2.623c0-0.305-0.238-0.543-0.543-0.543h-2.688
			V1.617c0-0.305-0.238-0.543-0.543-0.543c-0.305,0-0.543,0.238-0.543,0.543V2.08H5.423V1.617c0-0.305-0.238-0.543-0.543-0.543
			c-0.305,0-0.543,0.238-0.543,0.543V2.08H1.557c-0.305,0-0.543,0.238-0.543,0.543v12.129C1.014,15.043,1.265,15.281,1.557,15.281z
			 M2.099,3.166h2.238v0.291C4.337,3.762,4.575,4,4.88,4c0.305,0,0.543-0.238,0.543-0.543V3.166h6.647v0.291
			C12.07,3.762,12.308,4,12.613,4c0.305,0,0.543-0.238,0.543-0.543V3.166h2.158v1.404H2.099L2.099,3.166z M2.099,5.655h13.201v8.554
			H2.099L2.099,5.655z"/>
		<path fill="#0F6343" d="M12.613,8.144H4.801c-0.305,0-0.543,0.238-0.543,0.543S4.496,9.23,4.801,9.23h7.812
			c0.305,0,0.543-0.238,0.543-0.543C13.156,8.383,12.917,8.144,12.613,8.144z"/>
		<path fill="#0F6343" d="M8.707,10.766H4.801c-0.305,0-0.543,0.238-0.543,0.543s0.238,0.543,0.543,0.543h3.906
			c0.305,0,0.543-0.238,0.543-0.543C9.25,11.004,9.011,10.766,8.707,10.766z"/>
	</g>
</g>
</svg>
