<?xml version="1.0" encoding="utf-8"?>
<!-- Generator: Adobe Illustrator 17.0.0, SVG Export Plug-In . SVG Version: 6.00 Build 0)  -->
<!DOCTYPE svg PUBLIC "-//W3C//DTD SVG 1.1//EN" "http://www.w3.org/Graphics/SVG/1.1/DTD/svg11.dtd">
<svg version="1.1" id="Capa_1" xmlns="http://www.w3.org/2000/svg" xmlns:xlink="http://www.w3.org/1999/xlink" x="0px" y="0px"
     width="35px" height="35px" viewBox="0 0 35 35" enable-background="new 0 0 35 35" xml:space="preserve">
<g>
	<path fill="#42B27F" d="M21.881,7.697H3.461c-1.351,0-2.457,1.105-2.457,2.457v14.762c0,1.351,1.106,2.457,2.457,2.457h18.419
		c1.351,0,2.457-1.106,2.457-2.457V10.154C24.338,8.803,23.232,7.697,21.881,7.697 M18.307,17.903l-9.042,5.221
		c-0.351,0.203-0.638,0.037-0.638-0.369V12.314c0-0.406,0.287-0.571,0.638-0.369l9.042,5.221
		C18.658,17.369,18.658,17.701,18.307,17.903"/>
	<path fill="#42B27F" d="M32.594,10.225l-6.536,2.642v9.336l6.536,2.642c0.752,0.304,1.367-0.111,1.367-0.922V11.147
		C33.96,10.336,33.345,9.921,32.594,10.225"/>
</g>
</svg>
