<?xml version="1.0" encoding="utf-8"?>
<!-- Generator: Adobe Illustrator 17.0.0, SVG Export Plug-In . SVG Version: 6.00 Build 0)  -->
<!DOCTYPE svg PUBLIC "-//W3C//DTD SVG 1.1//EN" "http://www.w3.org/Graphics/SVG/1.1/DTD/svg11.dtd">
<svg version="1.1" id="Capa_1" xmlns="http://www.w3.org/2000/svg" xmlns:xlink="http://www.w3.org/1999/xlink" x="0px" y="0px"
     width="35px" height="35px" viewBox="0 0 35 35" enable-background="new 0 0 35 35" xml:space="preserve">
<g>
	<path fill="#42B27F" d="M22.483,10.602L10.087,22.997c-0.559,0.559-0.519,1.506,0.091,2.116c0.609,0.609,1.556,0.65,2.116,0.09
		l12.395-12.395c0.559-0.559,0.519-1.506-0.09-2.115C23.989,10.083,23.042,10.042,22.483,10.602"/>
	<path fill="#42B27F" d="M22.844,3.025l-5.898,5.898c-1.584,1.584-1.736,4.056-0.459,5.812l2.546-2.546
		c-0.025-0.553,0.174-1.115,0.597-1.538l4.942-4.942c0.799-0.799,2.094-0.799,2.893,0l2.116,2.116c0.799,0.799,0.799,2.094,0,2.893
		l-4.942,4.942c-0.423,0.423-0.984,0.622-1.538,0.597l-2.546,2.546c1.756,1.278,4.228,1.125,5.812-0.459l5.898-5.898
		c1.753-1.753,1.753-4.596,0-6.349l-3.072-3.072C27.44,1.272,24.598,1.272,22.844,3.025"/>
	<path fill="#42B27F" d="M15.45,24.849l-4.942,4.942c-0.799,0.799-2.094,0.799-2.893,0l-2.116-2.116
		c-0.799-0.799-0.799-2.094,0-2.893l4.942-4.942c0.423-0.423,0.984-0.622,1.538-0.597l2.546-2.546
		c-1.756-1.278-4.228-1.125-5.812,0.459l-5.898,5.898c-1.753,1.753-1.753,4.596,0,6.349l3.072,3.072
		c1.753,1.753,4.596,1.753,6.349,0l5.898-5.898c1.583-1.584,1.736-4.056,0.459-5.812l-2.546,2.546
		C16.072,23.865,15.873,24.426,15.45,24.849"/>
</g>
</svg>
