<?xml version="1.0" encoding="utf-8"?>
<!-- Generator: Adobe Illustrator 17.0.0, SVG Export Plug-In . SVG Version: 6.00 Build 0)  -->
<!DOCTYPE svg PUBLIC "-//W3C//DTD SVG 1.1//EN" "http://www.w3.org/Graphics/SVG/1.1/DTD/svg11.dtd">
<svg version="1.1" id="Capa_1" xmlns="http://www.w3.org/2000/svg" xmlns:xlink="http://www.w3.org/1999/xlink" x="0px" y="0px"
     width="35px" height="35px" viewBox="0 0 35 35" enable-background="new 0 0 35 35" xml:space="preserve">
<g>
	<path fill="#FFFFFF" d="M16.135,26.012c0.404,0.659,0.886,1.249,1.449,1.749l-0.689,2.854l2.239,1.165l1.799-2.255
		c0.725,0.178,1.48,0.255,2.244,0.217l1.531,2.505l2.406-0.759l-0.319-2.836c0.719-0.427,1.353-0.963,1.888-1.575l2.86,0.689
		l1.166-2.239l-2.289-1.829c0.175-0.747,0.247-1.527,0.193-2.314l2.361-1.44l-0.759-2.407l-2.725,0.31
		c-0.417-0.685-0.94-1.287-1.527-1.802l0.685-2.839l-2.238-1.165l-1.807,2.267c-0.765-0.183-1.563-0.249-2.37-0.191l-1.524-2.49
		l-2.407,0.759l0.328,2.911c-0.625,0.392-1.183,0.863-1.663,1.399l-2.834-0.684L12.97,18.25l2.234,1.779
		c-0.186,0.743-0.258,1.516-0.216,2.3l-2.634,1.614l0.759,2.407L16.135,26.012z M16.826,23.839
		c-1.035-3.282,0.787-6.783,4.069-7.818s6.783,0.787,7.818,4.07c1.035,3.282-0.788,6.782-4.07,7.817
		C21.362,28.943,17.861,27.121,16.826,23.839"/>
	<path fill="#FFFFFF" d="M6.785,10.102c0.074,0.542,0.224,1.061,0.445,1.545l-1.259,1.651l1.117,1.393l1.807-0.945
		c0.418,0.322,0.885,0.59,1.39,0.783l0.276,2.063l1.773,0.195l0.602-1.932c0.586-0.071,1.15-0.243,1.671-0.487l1.654,1.261
		l1.392-1.116l-0.96-1.836c0.327-0.434,0.593-0.918,0.783-1.443l1.935-0.259l0.195-1.774l-1.848-0.576
		c-0.074-0.562-0.238-1.101-0.471-1.601l1.252-1.642l-1.117-1.391l-1.815,0.953c-0.443-0.337-0.941-0.605-1.479-0.797l-0.277-2.043
		l-1.774-0.195L11.46,3.883C10.943,3.958,10.448,4.1,9.984,4.311l-1.639-1.25L6.954,4.178l0.937,1.787
		C7.559,6.393,7.29,6.872,7.093,7.392l-2.17,0.293L4.727,9.458L6.785,10.102z M7.858,8.893c0.266-2.419,2.442-4.165,4.861-3.899
		s4.165,2.442,3.899,4.861c-0.265,2.419-2.442,4.164-4.861,3.898C9.338,13.488,7.592,11.312,7.858,8.893"/>
	<path fill="#FFFFFF" d="M3.841,21.69c0.051,0.377,0.156,0.739,0.31,1.076l-0.877,1.15l0.778,0.97l1.258-0.658
		c0.291,0.224,0.616,0.41,0.968,0.545l0.192,1.436l1.235,0.136L8.124,25c0.409-0.05,0.801-0.169,1.163-0.339l1.152,0.878
		l0.969-0.777l-0.669-1.278c0.227-0.302,0.413-0.639,0.545-1.004l1.347-0.181l0.135-1.235l-1.287-0.401
		c-0.052-0.391-0.166-0.767-0.328-1.115l0.872-1.143l-0.778-0.969L9.981,18.1c-0.309-0.234-0.655-0.422-1.031-0.555L8.761,16.12
		l-1.235-0.136l-0.43,1.374c-0.36,0.053-0.704,0.152-1.027,0.298l-1.142-0.871l-0.968,0.778l0.652,1.245
		c-0.231,0.298-0.419,0.632-0.556,0.993l-1.511,0.204L2.408,21.24L3.841,21.69z M4.588,20.848c0.185-1.685,1.7-2.901,3.385-2.715
		c1.685,0.185,2.9,1.701,2.715,3.385c-0.185,1.684-1.701,2.9-3.385,2.715C5.618,24.048,4.403,22.533,4.588,20.848"/>
</g>
<g>
	<g>
		<path id="SVGID_1_" fill="#FFFFFF" d="M23.052,22.549l0.352,3.209l-0.611,0.638l-0.622-0.651l0.352-3.196l-0.631-0.686
			l-0.49,0.443c-0.392,0.137-0.774,0.275-1.146,0.436c0,0-0.27,0.108-0.537,0.218l-0.036,0.014v0.001
			c-0.163,0.067-0.32,0.134-0.409,0.177c-0.007,0.005-0.018,0.008-0.026,0.013c-0.02,0.01-0.036,0.017-0.043,0.023
			c-0.331,0.156-0.624,1.866-0.731,2.577c1.58,1.488,3.876,2.123,6.081,1.455c0.99-0.3,1.83-0.802,2.54-1.482
			c-0.098-0.719-0.363-2.395-0.729-2.55c-0.007-0.005-0.059-0.024-0.08-0.034c-0.008-0.005-0.959-0.412-0.959-0.412
			c-0.373-0.152-0.754-0.296-1.146-0.436l-0.493-0.443L23.052,22.549z"/>
	</g>
	<g>
		<defs>
			<path id="SVGID_2_" d="M23.052,22.549l0.352,3.209l-0.611,0.638l-0.622-0.651l0.352-3.196l-0.631-0.686l-0.49,0.443
				c-0.392,0.137-0.774,0.275-1.146,0.436c0,0-0.27,0.108-0.537,0.218l-0.036,0.014v0.001c-0.163,0.067-0.32,0.134-0.409,0.177
				c-0.007,0.005-0.018,0.008-0.026,0.013c-0.02,0.01-0.036,0.017-0.043,0.023c-0.331,0.156-0.624,1.866-0.731,2.577
				c1.58,1.488,3.876,2.123,6.081,1.455c0.99-0.3,1.83-0.802,2.54-1.482c-0.098-0.719-0.363-2.395-0.729-2.55
				c-0.007-0.005-0.059-0.024-0.08-0.034c-0.008-0.005-0.959-0.412-0.959-0.412c-0.373-0.152-0.754-0.296-1.146-0.436l-0.493-0.443
				L23.052,22.549z"/>
		</defs>
		<use xlink:href="#SVGID_2_"  overflow="visible" fill="#FFFFFF"/>
		<clipPath id="SVGID_4_">
			<use xlink:href="#SVGID_2_"  overflow="visible"/>
		</clipPath>
		<rect x="18.473" y="21.863" clip-path="url(#SVGID_4_)" fill="#FFFFFF" width="8.621" height="6.024"/>
	</g>
</g>
<g>
	<g>
		<path id="SVGID_3_" fill="#FFFFFF" d="M22.75,16.528c-0.962,0-1.744,0.78-1.744,1.744c0,0.098,0.024,0.531,0.024,0.65
			c-0.006,0-0.018-0.001-0.033-0.003c-0.092-0.009-0.316-0.019-0.281,0.385c0.089,0.991,0.388,0.796,0.4,0.796
			c0.187,0.6,0.477,0.983,0.763,1.226c0.439,0.374,0.866,0.472,0.873,0.472c0,0,0.015,0.004,0.037,0.004
			c0.023,0,0.035-0.004,0.035-0.004c0.007,0,0.437-0.098,0.878-0.477c0.283-0.245,0.571-0.626,0.758-1.224
			c0.01,0,0.301,0.181,0.39-0.812c0.034-0.393-0.173-0.381-0.266-0.368c-0.018,0.002-0.031,0.005-0.038,0.004
			c0-0.12,0.024-0.552,0.024-0.65c0-0.962-0.78-1.744-1.744-1.744L22.75,16.528L22.75,16.528z"/>
	</g>
	<g>
		<defs>
			<path id="SVGID_5_" d="M22.75,16.528c-0.962,0-1.744,0.78-1.744,1.744c0,0.098,0.024,0.531,0.024,0.65
				c-0.006,0-0.018-0.001-0.033-0.003c-0.092-0.009-0.316-0.019-0.281,0.385c0.089,0.991,0.388,0.796,0.4,0.796
				c0.187,0.6,0.477,0.983,0.763,1.226c0.439,0.374,0.866,0.472,0.873,0.472c0,0,0.015,0.004,0.037,0.004
				c0.023,0,0.035-0.004,0.035-0.004c0.007,0,0.437-0.098,0.878-0.477c0.283-0.245,0.571-0.626,0.758-1.224
				c0.01,0,0.301,0.181,0.39-0.812c0.034-0.393-0.173-0.381-0.266-0.368c-0.018,0.002-0.031,0.005-0.038,0.004
				c0-0.12,0.024-0.552,0.024-0.65c0-0.962-0.78-1.744-1.744-1.744L22.75,16.528L22.75,16.528z"/>
		</defs>
		<use xlink:href="#SVGID_5_"  overflow="visible" fill="#FFFFFF"/>
		<clipPath id="SVGID_6_">
			<use xlink:href="#SVGID_5_"  overflow="visible"/>
		</clipPath>
		<rect x="20.681" y="16.528" clip-path="url(#SVGID_6_)" fill="#FFFFFF" width="4.203" height="5.275"/>
	</g>
</g>
</svg>
