<?xml version="1.0" encoding="utf-8"?>
<!-- Generator: Adobe Illustrator 17.0.0, SVG Export Plug-In . SVG Version: 6.00 Build 0)  -->
<!DOCTYPE svg PUBLIC "-//W3C//DTD SVG 1.1//EN" "http://www.w3.org/Graphics/SVG/1.1/DTD/svg11.dtd">
<svg version="1.1" id="Capa_1" xmlns="http://www.w3.org/2000/svg" xmlns:xlink="http://www.w3.org/1999/xlink" x="0px" y="0px"
     width="35px" height="35px" viewBox="0 0 35 35" enable-background="new 0 0 35 35" xml:space="preserve">
<g>
	<g>
		<path id="SVGID_1_" fill="#FFFFFF" d="M27.427,8.746l0.411,5.244l-0.809,0.863l-0.784-0.867l0.394-5.24l-0.944-0.908l-0.734,0.586
			c-0.583,0.186-1.156,0.368-1.705,0.577c0,0-0.289,0.103-0.619,0.223c0.052,0.02,0.104,0.039,0.156,0.059
			c0,0,0.565,0.2,1.124,0.406l0.076,0.026L24,9.717c1.271,0.437,1.277,1.452,1.277,1.452v5.89l-0.055,5.898
			c0,0-0.569,0.679-1.567,0.694v3.733c0,0.406,0.591,0.985,1.7,0.983c1.102-0.002,1.68-0.831,1.68-0.831s0.568,0.875,1.669,0.875
			c1.092,0,1.649-0.786,1.649-1.194l0.002-8.495c0,0,0.346,0.494,1.103,0.494c0.761,0,1.141-0.494,1.141-0.494l0.041-4.193v-4.187
			c0,0-0.04-0.722-0.943-1.032l-0.02-0.001L31.61,9.29c-0.397-0.146-0.804-0.289-0.804-0.289c-0.554-0.212-1.124-0.395-1.708-0.577
			l-0.731-0.586L27.427,8.746z"/>
	</g>
	<g>
		<g>
			<defs>
				<path id="SVGID_2_" d="M27.511,8.744l0.363,5.248l-0.817,0.855l-0.776-0.875l0.442-5.236l-0.936-0.916l-0.74,0.58
					c-0.585,0.18-1.16,0.358-1.711,0.561c0,0-0.289,0.101-0.621,0.217c0.052,0.02,0.104,0.039,0.156,0.061
					c0,0,0.563,0.206,1.12,0.416l0.076,0.026l0.007,0.002c1.267,0.449,1.263,1.464,1.263,1.464l-0.054,5.89l-0.109,5.898
					c0,0-0.575,0.673-1.573,0.68l-0.034,3.733c-0.004,0.406,0.583,0.991,1.692,0.999c1.102,0.008,1.688-0.815,1.688-0.815
					s0.56,0.881,1.661,0.89c1.092,0.01,1.657-0.772,1.659-1.18l0.078-8.495c0,0,0.342,0.498,1.099,0.504
					c0.761,0.006,1.145-0.484,1.145-0.484l0.079-4.193l0.038-4.187c0,0-0.034-0.722-0.933-1.04l-0.02-0.001l-0.067-0.019
					c-0.395-0.15-0.802-0.297-0.802-0.297c-0.552-0.216-1.12-0.405-1.702-0.593l-0.725-0.592L27.511,8.744z"/>
			</defs>
			<use xlink:href="#SVGID_2_"  overflow="visible" fill="#FFFFFF"/>
			<clipPath id="SVGID_4_">
				<use xlink:href="#SVGID_2_"  overflow="visible"/>
			</clipPath>

				<rect x="17.327" y="13.079" transform="matrix(0.0045 -1 1 0.0045 9.3862 45.68)" clip-path="url(#SVGID_4_)" fill="#FFFFFF" width="20.619" height="10.094"/>
		</g>
	</g>
</g>
<g>
	<g>
		<path id="SVGID_3_" fill="#FFFFFF" d="M26.969,1.817c-1.15,0-2.081,0.854-2.081,1.952c0,0.112,0.028,0.586,0.028,0.723
			c-0.009,0-0.026-0.003-0.048-0.006c-0.112-0.017-0.354-0.033-0.313,0.411c0.106,1.133,0.453,0.916,0.465,0.916
			c0.223,0.682,0.567,1.117,0.904,1.396c0.527,0.432,1.039,0.543,1.048,0.543c0,0,0.013,0.005,0.042,0.005
			c0.027,0,0.044-0.005,0.044-0.005c0.008,0,0.518-0.111,1.041-0.538c0.341-0.276,0.687-0.714,0.91-1.398
			c0.014,0,0.371,0.223,0.477-0.907c0.041-0.46-0.226-0.45-0.335-0.439c-0.018,0.002-0.032,0.003-0.039,0.003
			c0-0.137,0.029-0.591,0.029-0.703c0-1.1-0.933-1.952-2.081-1.952L26.969,1.817L26.969,1.817z"/>
	</g>
	<g>
		<g>
			<defs>
				<path id="SVGID_6_" d="M26.995,1.817c-1.15-0.01-2.089,0.836-2.099,1.934c-0.002,0.112,0.022,0.586,0.022,0.723
					c-0.009,0-0.026-0.003-0.048-0.006c-0.112-0.019-0.354-0.037-0.317,0.409c0.096,1.133,0.445,0.92,0.457,0.92
					c0.217,0.684,0.557,1.123,0.892,1.404c0.523,0.436,1.035,0.553,1.044,0.553c0,0,0.013,0.005,0.042,0.005
					c0.027,0,0.044-0.005,0.044-0.005c0.008,0,0.518-0.107,1.045-0.528c0.343-0.272,0.693-0.708,0.922-1.39
					c0.014,0,0.369,0.227,0.485-0.903c0.045-0.46-0.222-0.452-0.331-0.442c-0.018,0.002-0.032,0.003-0.039,0.003
					c0.002-0.137,0.035-0.591,0.035-0.703c0.01-1.1-0.915-1.96-2.063-1.97L26.995,1.817L26.995,1.817z"/>
			</defs>
			<use xlink:href="#SVGID_6_"  overflow="visible" fill="#FFFFFF"/>
			<clipPath id="SVGID_8_">
				<use xlink:href="#SVGID_6_"  overflow="visible"/>
			</clipPath>

				<rect x="24.039" y="2.267" transform="matrix(0.0045 -1 1 0.0045 22.1113 31.7865)" clip-path="url(#SVGID_8_)" fill="#FFFFFF" width="5.963" height="5.041"/>
		</g>
	</g>
</g>
<g>
	<g>
		<path id="SVGID_5_" fill="#FFFFFF" d="M8.33,8.746l0.411,5.244l-0.808,0.863l-0.784-0.867l0.394-5.24L6.599,7.839L5.865,8.425
			C5.281,8.61,4.709,8.792,4.159,9.002c0,0-0.328,0.109-0.67,0.234L3.441,9.245l0,0c-1.025,0.34-1.077,0.973-1.078,1.081v0.008
			c0,0.005,0,0.008,0,0.008l0.011,4.187l0.004,4.193c0,0,0.415,0.482,1.176,0.482c0.752,0,1.096-0.482,1.096-0.482l0.001,8.664
			c0,0.406,0.544,0.985,1.652,0.983c1.102-0.002,1.656-0.831,1.656-0.831s0.556,0.875,1.657,0.875c1.092,0,1.643-0.786,1.643-1.194
			v-3.582c-1.026-0.029-1.581-0.678-1.581-0.678L9.68,17.06l-0.001-5.89c0,0-0.001-1.02,1.545-1.544V9.625l0.038-0.013
			c0.482-0.176,0.913-0.329,0.913-0.329c0.051-0.019,0.102-0.038,0.153-0.058C11.996,9.104,11.704,9,11.704,9
			C11.152,8.789,10.583,8.607,10,8.425L9.27,7.839L8.33,8.746z"/>
	</g>
	<g>
		<g>
			<defs>
				<path id="SVGID_9_" d="M8.414,8.754l0.363,5.248l-0.816,0.855l-0.776-0.875l0.442-5.236L6.691,7.831l-0.74,0.58
					C5.366,8.591,4.792,8.768,4.24,8.972c0,0-0.328,0.107-0.672,0.228L3.52,9.209l0,0c-1.029,0.33-1.085,0.963-1.088,1.071l0,0.008
					c0,0.005,0,0.008,0,0.008l-0.027,4.187l-0.034,4.193c0,0,0.411,0.486,1.172,0.492c0.752,0.006,1.1-0.472,1.1-0.472L4.566,27.36
					c-0.004,0.406,0.536,0.989,1.644,0.997c1.102,0.008,1.664-0.817,1.664-0.817s0.548,0.88,1.649,0.889
					c1.092,0.01,1.651-0.772,1.653-1.18l0.032-3.582c-1.026-0.039-1.575-0.692-1.575-0.692l0.056-5.899l0.053-5.89
					c0,0,0.009-1.02,1.559-1.53l0-0.001l0.038-0.013c0.484-0.172,0.915-0.321,0.915-0.321c0.051-0.019,0.102-0.038,0.153-0.056
					c-0.33-0.123-0.622-0.231-0.622-0.231c-0.55-0.215-1.117-0.403-1.698-0.591L9.362,7.854L8.414,8.754z"/>
			</defs>
			<use xlink:href="#SVGID_9_"  overflow="visible" fill="#FFFFFF"/>
			<clipPath id="SVGID_10_">
				<use xlink:href="#SVGID_9_"  overflow="visible"/>
			</clipPath>

				<rect x="-2.963" y="13.096" transform="matrix(0.0045 -1 1 0.0045 -10.8118 25.3897)" clip-path="url(#SVGID_10_)" fill="#FFFFFF" width="20.619" height="10.059"/>
		</g>
	</g>
</g>
<g>
	<g>
		<path id="SVGID_7_" fill="#FFFFFF" d="M7.873,1.817c-1.151,0-2.081,0.854-2.081,1.952c0,0.112,0.029,0.586,0.029,0.723
			c-0.009,0-0.026-0.003-0.048-0.006C5.66,4.469,5.418,4.453,5.458,4.897C5.564,6.03,5.912,5.813,5.923,5.813
			C6.147,6.495,6.49,6.93,6.828,7.209c0.526,0.432,1.039,0.543,1.047,0.543c0,0,0.014,0.005,0.042,0.005
			c0.027,0,0.044-0.005,0.044-0.005c0.008,0,0.518-0.111,1.041-0.538C9.343,6.939,9.69,6.5,9.913,5.816
			c0.014,0,0.371,0.223,0.477-0.907c0.041-0.46-0.226-0.45-0.335-0.439c-0.018,0.002-0.032,0.003-0.039,0.003
			c0-0.137,0.029-0.591,0.029-0.703c0-1.1-0.933-1.952-2.081-1.952L7.873,1.817L7.873,1.817z"/>
	</g>
	<g>
		<g>
			<defs>
				<path id="SVGID_11_" d="M7.899,1.817c-1.151-0.01-2.089,0.836-2.099,1.934c0,0.111,0.024,0.585,0.023,0.722
					c-0.009,0-0.026-0.003-0.048-0.006C5.663,4.448,5.421,4.43,5.457,4.875c0.096,1.133,0.446,0.92,0.457,0.92
					C6.131,6.479,6.47,6.918,6.806,7.199c0.522,0.436,1.035,0.553,1.043,0.553c0,0,0.014,0.005,0.042,0.005
					c0.027,0,0.044-0.005,0.044-0.005c0.008,0,0.518-0.107,1.045-0.528c0.343-0.272,0.694-0.708,0.923-1.39
					c0.014,0,0.369,0.227,0.485-0.903c0.045-0.46-0.222-0.452-0.331-0.441c-0.018,0.002-0.032,0.003-0.039,0.003
					c0.002-0.138,0.035-0.591,0.035-0.703c0.01-1.1-0.915-1.96-2.063-1.97L7.899,1.817L7.899,1.817z"/>
			</defs>
			<use xlink:href="#SVGID_11_"  overflow="visible" fill="#FFFFFF"/>
			<clipPath id="SVGID_12_">
				<use xlink:href="#SVGID_11_"  overflow="visible"/>
			</clipPath>

				<rect x="4.943" y="2.267" transform="matrix(0.0045 -1 1 0.0045 3.1012 12.6907)" clip-path="url(#SVGID_12_)" fill="#FFFFFF" width="5.963" height="5.041"/>
		</g>
	</g>
</g>
<g>
	<path fill="#FFFFFF" d="M24.314,21.934l0.088-4.999v-5.126c0,0-0.087-0.883-1.194-1.264l-0.044-0.002l-0.088-0.023
		c-0.487-0.179-0.99-0.354-0.99-0.354c-0.045-0.017-0.095-0.034-0.141-0.051C21.31,9.876,20.657,9.668,19.99,9.46l-0.895-0.718
		l-1.152,1.112l0.503,6.42l-0.99,1.057l-0.959-1.061l0.483-6.415l-1.156-1.112L14.926,9.46c-0.668,0.212-1.323,0.42-1.955,0.656
		c-0.044,0.017-0.089,0.034-0.133,0.05c0,0-0.375,0.133-0.795,0.286l-0.033,0.011v0.001c-1.346,0.455-1.345,1.343-1.345,1.343
		l0.001,5.126l-0.001,5.133c0,0,0.482,0.565,1.375,0.59c0.02,0.001,0.04,0.001,0.061,0.001c0.921,0,1.341-0.591,1.341-0.591
		l0.001,10.607c0,0.497,0.665,1.206,2.022,1.203c1.35-0.003,2.027-1.018,2.027-1.018s0.681,1.071,2.029,1.071
		c1.337,0,2.011-0.963,2.011-1.462l-0.001-10.535c0,0,0.421,0.471,1.348,0.471h0.042C23.832,22.405,24.314,21.934,24.314,21.934"/>
	<path fill="#FFFFFF" d="M14.998,6.263c0.273,0.834,0.694,1.367,1.107,1.709c0.644,0.529,1.272,0.666,1.282,0.666
		c0,0,0.016,0.006,0.051,0.006c0.033,0,0.054-0.006,0.054-0.006c0.01,0,0.634-0.136,1.275-0.659
		c0.417-0.339,0.841-0.875,1.114-1.712c0.018,0,0.455,0.273,0.584-1.111c0.059-0.657-0.395-0.531-0.458-0.534
		c0-0.167,0.035-0.875,0.035-1.012c0-1.347-1.143-2.54-2.548-2.54h-0.112c-1.409,0-2.548,1.196-2.548,2.54
		c0,0.137,0.035,0.793,0.035,0.96c-0.063,0.003-0.503-0.12-0.443,0.534C14.558,6.49,14.984,6.263,14.998,6.263"/>
</g>
</svg>
