<?xml version="1.0" encoding="utf-8"?>
<!-- Generator: Adobe Illustrator 17.0.0, SVG Export Plug-In . SVG Version: 6.00 Build 0)  -->
<!DOCTYPE svg PUBLIC "-//W3C//DTD SVG 1.1//EN" "http://www.w3.org/Graphics/SVG/1.1/DTD/svg11.dtd">
<svg version="1.1" id="Capa_1" xmlns="http://www.w3.org/2000/svg" xmlns:xlink="http://www.w3.org/1999/xlink" x="0px" y="0px"
     width="35px" height="35px" viewBox="0 0 35 35" enable-background="new 0 0 35 35" xml:space="preserve">
<g>
	<defs>
		<polygon id="SVGID_1_" points="27.304,17.249 28.793,19.224 17.995,26.344 11.272,22.065 0.751,27.755 1.933,29.893 11.01,24.984
			18.019,29.464 30.372,21.316 31.805,23.214 34.219,16.95 		"/>
	</defs>
	<use xlink:href="#SVGID_1_"  overflow="visible" fill="#42B27F"/>
	<clipPath id="SVGID_2_">
		<use xlink:href="#SVGID_1_"  overflow="visible"/>
	</clipPath>

		<rect x="10.514" y="6.501" transform="matrix(-0.03 -0.9996 0.9996 -0.03 -5.4018 41.6009)" clip-path="url(#SVGID_2_)" fill="#42B27F" width="13.942" height="33.841"/>
</g>
<g>
	<path fill="#42B27F" d="M26.352,19.875c-0.198-0.726-0.425-1.299-0.663-1.411c-0.014-0.009-0.041-0.022-0.076-0.04
		c-0.014-0.009-0.032-0.014-0.045-0.023c-0.157-0.074-0.434-0.192-0.721-0.311l-0.001-0.002l-0.064-0.025
		c-0.471-0.195-0.946-0.384-0.946-0.384c-0.655-0.283-1.328-0.525-2.019-0.767l-0.864-0.78l-1.112,1.208l0.62,5.63l-1.096,1.148
		l-1.076-1.125l0.621-5.653l-1.117-1.208l-0.869,0.78c-0.691,0.247-1.368,0.489-2.019,0.767c0,0-0.363,0.145-0.769,0.311
		l-0.032,0.012l0,0.001c-0.355,0.146-0.736,0.305-0.931,0.398c-0.014,0.009-0.032,0.014-0.045,0.023
		c-0.036,0.018-0.063,0.031-0.076,0.04c-0.454,0.192-0.825,1.743-1.065,3.087l6.009,3.839L26.352,19.875z"/>
	<path fill="#42B27F" d="M16.428,13.021c0.33,1.053,0.837,1.725,1.336,2.156c0.778,0.668,1.534,0.84,1.547,0.84
		c0,0,0.02,0.008,0.062,0.008c0.04,0,0.065-0.008,0.065-0.008c0.012,0,0.765-0.172,1.539-0.831c0.503-0.427,1.015-1.103,1.344-2.16
		c0.021,0,0.548,0.344,0.705-1.402c0.072-0.828-0.476-0.669-0.553-0.674c0-0.211,0.042-0.988,0.042-1.161
		c0-1.699-1.378-3.089-3.073-3.089h-0.135c-1.699,0-3.073,1.394-3.073,3.089c0,0.173,0.042,0.942,0.042,1.153
		c-0.076,0.004-0.607-0.179-0.535,0.645C15.897,13.336,16.411,13.021,16.428,13.021"/>
	<path fill="#42B27F" d="M5.911,14.911c0.287,0.915,0.727,1.499,1.161,1.873c0.676,0.581,1.333,0.73,1.344,0.73
		c0,0,0.017,0.007,0.054,0.007c0.035,0,0.057-0.007,0.057-0.007c0.011,0,0.665-0.149,1.337-0.722
		c0.437-0.371,0.882-0.959,1.168-1.877c0.018,0,0.476,0.299,0.612-1.218c0.062-0.72-0.414-0.582-0.48-0.585
		c0-0.184,0.037-0.864,0.037-1.015c0-1.477-1.197-2.69-2.67-2.69H8.412c-1.476,0-2.67,1.217-2.67,2.69
		c0,0.151,0.037,0.821,0.037,1.005c-0.066,0.004-0.527-0.154-0.464,0.562C5.45,15.184,5.896,14.911,5.911,14.911"/>
	<path fill="#42B27F" d="M11.433,21.109c0.173-0.904,0.388-1.768,0.661-2.258c-0.489-0.201-0.989-0.38-1.499-0.559l-0.751-0.678
		l-0.966,1.05l0.398,3.618l2.087-1.129L11.433,21.109z"/>
	<path fill="#42B27F" d="M8.067,18.663l-0.971-1.049l-0.755,0.678c-0.6,0.214-1.189,0.425-1.754,0.667c0,0-0.315,0.126-0.668,0.27
		l-0.028,0.011l0,0.001c-0.308,0.127-0.639,0.265-0.809,0.346c-0.012,0.008-0.027,0.012-0.039,0.02
		c-0.031,0.016-0.055,0.027-0.066,0.035c-0.706,0.299-1.181,4.381-1.189,4.444c-0.008,0.055-0.004,0.11-0.012,0.168
		c-0.14,1.138-0.211,2.202-0.211,2.202l6.003-3.25L8.067,18.663z"/>
</g>
</svg>
