<svg xmlns="http://www.w3.org/2000/svg" viewBox="0 0 113.42 174.17">
    <defs>
        <style>.cls-1{fill:#230008;opacity:0.7;}.cls-2{fill:none;stroke:#fff;stroke-linecap:round;stroke-linejoin:round;stroke-width:8px;}</style>
    </defs>
    <title>back</title>
    <g id="Capa_2" data-name="Capa 2">
        <g id="Capa_1-2" data-name="Capa 1">
            <path class="cls-1" d="M10.39,0h103a0,0,0,0,1,0,0V174.17a0,0,0,0,1,0,0h-103A10.39,10.39,0,0,1,0,163.77V10.39A10.39,10.39,0,0,1,10.39,0Z"/>
            <polyline class="cls-2" points="70.51 48.69 43.76 86.69 70.51 120.19"/>
        </g>
    </g>
</svg>